Wall time,Step,Value
1585772711.9633763,300,450.440185546875
1585773068.7594156,600,403.827880859375
1585773255.6645024,750,392.3050231933594
1585773317.5800192,800,374.9608459472656
1585773506.9425457,950,361.8518371582031
1585773890.355077,1250,299.4728088378906
1585774609.5395584,1850,200.16580200195312
1585774839.1558502,2050,155.68385314941406
1585774952.8863404,2150,134.9641876220703
1585775064.1583712,2250,104.31147766113281
1585775118.4665542,2300,94.92113494873047
1585775226.6149879,2400,91.9239273071289
1585775562.2021456,2700,79.5826644897461
1585775621.536115,2750,87.6679458618164
1585775679.7542539,2800,71.1559829711914
1585775737.933994,2850,94.9115219116211
1585776237.9033635,3300,85.78715515136719
1585776400.51705,3450,91.06746673583984
1585776562.9695003,3600,86.8298568725586
1585776617.205468,3650,87.04879760742188
1585776671.5702095,3700,76.1557388305664
1585776725.7359307,3750,83.56246948242188
1585777004.8179836,4000,57.71199417114258
1585777465.0543582,4400,106.70109558105469
1585777521.920253,4450,74.34354400634766
1585777856.097612,4750,89.19561004638672
1585778287.2140849,5150,57.26885986328125
1585778449.8939955,5300,36.90693664550781
1585778504.1648102,5350,43.765926361083984
1585778883.248077,5700,28.797096252441406
1585779155.0206447,5950,31.13715934753418
1585779590.4664624,6350,51.584251403808594
1585779753.4434474,6500,29.052974700927734
1585779807.5182884,6550,29.83493423461914
1585780309.312399,7000,32.12782287597656
1585780431.3119187,7100,31.50126075744629
1585780501.7889485,7150,29.272727966308594
1585780571.0236523,7200,22.330760955810547
1585781048.6971395,7550,37.547183990478516
1585781363.4907153,7800,32.03632736206055
1585781475.338206,7900,31.723974227905273
1585781529.7635386,7950,30.07529067993164
1585781744.6136184,8150,40.07079315185547
1585782013.2879403,8400,27.002676010131836
1585782067.213101,8450,30.50457191467285
1585782229.4272046,8600,38.57026290893555
1585782553.617916,8900,24.492263793945312
1585782607.3647845,8950,35.455955505371094
1585782715.304358,9050,35.80630874633789
1585782877.020871,9200,36.74839401245117
1585782984.5768652,9300,37.11573028564453
1585783038.481634,9350,41.400699615478516
1585783146.7280545,9450,31.217464447021484
1585783254.8669138,9550,17.752424240112305
1585783309.0151157,9600,26.76633071899414
1585783688.5603828,9950,36.44849395751953
1585784120.8943675,10350,23.464345932006836
1585784175.1772306,10400,34.370174407958984
1585784228.9263012,10450,24.427087783813477
1585784443.0928066,10650,22.557300567626953
1585784981.9678102,11150,26.78565788269043
1585785036.3835711,11200,26.172748565673828
1585785144.6308398,11300,13.817291259765625
1585785359.8956304,11500,21.560039520263672
1585785523.4034781,11650,23.619483947753906
1585785578.0238173,11700,27.081077575683594
1585785631.8909776,11750,18.158004760742188
1585785795.145217,11900,22.71068000793457
1585786444.31079,12500,17.265737533569336
1585786770.371348,12800,17.892498016357422
1585786933.2512999,12950,20.224998474121094
1585787041.2019885,13050,28.644332885742188
1585787095.538425,13100,12.493535995483398
1585787203.7432587,13200,20.967533111572266
1585787421.1619475,13400,20.697843551635742
1585787638.645446,13600,15.875649452209473
1585787746.7109692,13700,27.206565856933594
1585788017.2451012,13950,15.165675163269043
1585788774.604061,14650,15.679482460021973
1585789046.2698689,14900,28.811378479003906
1585789100.4530623,14950,25.314722061157227
1585789317.5844047,15150,24.294824600219727
1585789372.0784116,15200,18.832443237304688
1585789588.8612313,15400,12.530631065368652
1585789642.9622025,15450,12.53911018371582
1585789751.153324,15550,11.90832233428955
1585789913.5864925,15700,33.534934997558594
1585790184.2517238,15950,12.051336288452148
1585790238.2817903,16000,10.892736434936523
1585790292.6921234,16050,20.697975158691406
1585790565.1518643,16300,19.782697677612305
1585790619.2050288,16350,28.64776611328125
1585790673.4761693,16400,12.108068466186523
1585790835.6774874,16550,12.91735553741455
1585791322.15511,17000,12.98550033569336
1585791430.5570045,17100,24.56275749206543
1585791755.8531067,17400,23.4167423248291
1585792080.9399636,17700,20.745113372802734
1585792459.6064231,18050,30.19126319885254
1585792621.9601786,18200,22.97201919555664
1585792839.5058887,18400,19.999910354614258
1585793054.78068,18600,14.34774112701416
1585793162.9715986,18700,15.446852684020996
1585793378.5178742,18900,14.967203140258789
1585793432.2222376,18950,19.186344146728516
1585793486.7588289,19000,11.935873985290527
1585793595.3575752,19100,20.20394515991211
1585793867.1225429,19350,42.47476577758789
1585794140.5459292,19600,23.325687408447266
1585794194.635258,19650,14.520649909973145
1585795060.3662667,20450,34.10179138183594
1585795438.6178088,20800,21.163549423217773
1585795764.8396537,21100,18.480745315551758
1585795819.3458877,21150,28.36518096923828
1585795928.3263474,21250,12.167135238647461
1585796253.377744,21550,32.109947204589844
1585796738.8307612,22000,31.58326530456543
1585796846.948072,22100,10.628870964050293
1585796900.846317,22150,10.309874534606934
1585797062.0275967,22300,11.20905876159668
1585797387.6363723,22600,16.467138290405273
1585797820.6292787,23000,23.626773834228516
1585797874.2225504,23050,28.312896728515625
1585798035.1051123,23200,23.286766052246094
1585798089.1184645,23250,26.82433319091797
1585798580.5601585,23700,17.549964904785156
1585798634.7398927,23750,31.273454666137695
1585799228.376965,24300,18.950572967529297
1585799389.6534946,24450,33.9359245300293
1585799443.574508,24500,27.492015838623047
1585799551.6012259,24600,13.760785102844238
1585799664.0721521,24700,21.55352783203125
1585800472.1925912,25400,12.793227195739746
1585800756.9236104,25650,22.41242027282715
1585800868.0163743,25750,14.020259857177734
1585801031.1255393,25900,17.8317813873291
1585801138.7705202,26000,26.920127868652344
1585801409.2072027,26250,22.056564331054688
1585801463.5850036,26300,25.270872116088867
1585801792.6249752,26600,16.244688034057617
1585801902.9414911,26700,18.802021026611328
1585801957.791559,26750,11.810694694519043
1585802068.872231,26850,9.872175216674805
1585802124.7915514,26900,21.01451873779297
1585802287.5691097,27050,8.283141136169434
1585802395.4032555,27150,19.21317481994629
1585802667.8349407,27400,17.004459381103516
1585802723.269318,27450,25.7507381439209
1585803208.7459016,27900,23.587905883789062
1585803316.274889,28000,13.322269439697266
1585803531.46892,28200,21.908737182617188
1585803585.7368886,28250,16.81694984436035
1585803639.6784873,28300,18.00090789794922
1585803856.1078556,28500,16.101642608642578
1585804072.8883247,28700,19.065704345703125
1585804126.927403,28750,25.238121032714844
1585804288.9554346,28900,13.210397720336914
1585804396.8760197,29000,14.171382904052734
1585804505.02459,29100,20.003192901611328
1585804559.2634711,29150,21.726415634155273
1585804613.4476242,29200,10.955695152282715
1585804667.7747028,29250,12.746648788452148
1585804776.2798984,29350,7.973946571350098
1585804830.4250503,29400,10.43289566040039
1585805100.8430965,29650,28.45167350769043
1585805155.2517123,29700,9.63654613494873
1585805534.497367,30050,23.321208953857422
1585805642.9673471,30150,23.380338668823242
1585805967.4891303,30450,20.46590232849121
1585806075.6402757,30550,17.578004837036133
1585806346.3437312,30800,12.758556365966797
1585806616.8012943,31050,20.992610931396484
1585806724.7692733,31150,16.629377365112305
1585807372.966981,31750,13.542283058166504
1585807753.0101721,32100,20.31252098083496
1585807807.5833657,32150,13.68379020690918
1585807916.7923684,32250,14.329325675964355
1585807972.585907,32300,20.949079513549805
1585808028.3018906,32350,16.057098388671875
1585808083.8545973,32400,33.22432327270508
1585808192.9049108,32500,13.712333679199219
1585808354.112509,32650,12.777714729309082
1585808569.1862535,32850,18.794879913330078
1585808622.8221734,32900,18.87853240966797
1585808838.5141447,33100,8.096281051635742
1585808999.7609677,33250,25.263761520385742
1585809216.3375466,33450,11.130598068237305
1585809383.0613449,33600,13.570868492126465
1585809440.178456,33650,19.035869598388672
1585809560.0279663,33750,12.190566062927246
1585809622.9972548,33800,10.184059143066406
1585809746.6148505,33900,24.686113357543945
1585809809.5487452,33950,17.36762046813965
1585809872.2884634,34000,26.81363296508789
1585810069.5584083,34150,10.65228271484375
1585810136.396066,34200,34.943031311035156
1585810203.3819315,34250,26.21597671508789
1585810337.7725728,34350,13.42135238647461
1585810468.0998325,34450,17.136337280273438
1585810535.7767417,34500,14.318167686462402
1585810964.6334,34850,6.304256439208984
1585811130.928652,35000,15.972793579101562
1585811347.5408413,35200,29.290987014770508
1585811509.603365,35350,26.148347854614258
1585811616.7136815,35450,28.357391357421875
1585811724.2209525,35550,15.383150100708008
1585811945.9198794,35750,12.063811302185059
1585812174.5812237,35950,15.514673233032227
1585812342.0567198,36100,19.274892807006836
1585812396.6588383,36150,7.504549026489258
1585812451.772482,36200,13.626107215881348
1585812506.6015074,36250,25.561033248901367
1585812831.8515737,36550,16.30933952331543
1585813161.570023,36850,18.9917049407959
1585813271.2785206,36950,27.158052444458008
1585813325.428971,37000,36.476139068603516
1585813543.64832,37200,28.487510681152344
1585813706.726041,37350,13.633550643920898
1585813761.3271158,37400,19.22972869873047
1585813924.0255306,37550,22.668996810913086
1585813978.4915972,37600,12.387280464172363
1585814032.804264,37650,11.030180931091309
1585814140.9562268,37750,16.452999114990234
1585814248.9867666,37850,16.32876968383789
1585814572.099729,38150,20.855125427246094
1585814733.7329607,38300,15.225286483764648
1585814787.65122,38350,16.52534294128418
1585814949.8877563,38500,13.915746688842773
1585815005.3332431,38550,9.065925598144531
1585815062.0715508,38600,24.090343475341797
1585815174.7127953,38700,6.3092875480651855
1585815229.23985,38750,34.800682067871094
1585815561.3827097,39050,18.56648826599121
1585815776.7465189,39250,29.52247428894043
1585815830.790442,39300,16.942174911499023
1585815939.2191062,39400,24.303131103515625
1585816047.5240343,39500,11.066091537475586
1585816156.1715198,39600,13.311381340026855
1585816210.5829344,39650,18.217008590698242
1585816265.0381494,39700,21.987276077270508
1585816319.1736636,39750,10.143549919128418
1585816373.1381938,39800,34.41744613647461
1585816535.31696,39950,31.06961441040039
1585816642.8539438,40050,19.048254013061523
1585816750.0678625,40150,22.631214141845703
1585816917.0452194,40300,23.1616153717041
1585817025.5973496,40400,14.796393394470215
1585817079.983482,40450,19.465795516967773
1585817134.0563264,40500,24.67607307434082
1585817458.9579072,40800,12.03046989440918
1585817512.6851015,40850,30.598777770996094
1585817620.0435517,40950,23.334762573242188
1585817780.3905394,41100,7.29422664642334
1585817994.2472632,41300,10.102728843688965
1585818155.3716075,41450,17.00713539123535
1585818317.1083229,41600,12.53438663482666
1585818371.3003247,41650,17.026052474975586
1585818478.905057,41750,8.813682556152344
1585818586.9692583,41850,8.935921669006348
1585818695.1687672,41950,19.968196868896484
1585818964.0348907,42200,18.865447998046875
1585819126.0279706,42350,12.578969955444336
1585819234.0560167,42450,21.24608039855957
1585820045.8998172,43200,17.595529556274414
1585820265.298323,43400,20.77482795715332
1585820374.1699975,43500,23.28130531311035
1585820427.8992562,43550,23.728229522705078
1585820643.817557,43750,21.27384376525879
1585820750.9712665,43850,15.557855606079102
1585820965.7737753,44050,29.589426040649414
1585821077.5271313,44150,15.683793067932129
1585821191.9644353,44250,27.108552932739258
1585821362.8287277,44400,17.887664794921875
1585821478.003221,44500,14.022523880004883
1585821535.408541,44550,9.709386825561523
1585821652.1987033,44650,18.688024520874023
1585821910.311125,44850,13.949383735656738
1585822137.083888,45050,16.230632781982422
1585822515.049043,45400,10.997519493103027
1585822568.844541,45450,23.362205505371094
1585822622.6856592,45500,7.738858222961426
1585822676.8409863,45550,14.90304183959961
1585822784.3184977,45650,12.985326766967773
1585822946.6576111,45800,24.221120834350586
1585823000.7707863,45850,18.9837703704834
1585823054.79671,45900,16.9635066986084
1585823217.0148315,46050,15.357791900634766
1585823271.252976,46100,31.8336238861084
1585823325.6373134,46150,15.908376693725586
1585823379.929066,46200,16.460203170776367
1585823818.5490224,46600,15.37675952911377
1585823873.9894106,46650,20.471420288085938
1585824037.1265934,46800,14.378942489624023
1585824418.2687492,47150,16.566001892089844
1585824581.1877666,47300,13.803916931152344
1585825018.0728476,47700,10.394213676452637
1585825075.9716156,47750,25.759469985961914
1585825190.657497,47850,15.821698188781738
1585825252.7937427,47900,16.149436950683594
1585825319.5481942,47950,13.327030181884766
1585825520.5796404,48100,12.701359748840332
1585825588.0940888,48150,20.233348846435547
1585825717.056795,48250,22.55964469909668
1585825844.1093218,48350,11.879298210144043
1585826128.1016135,48600,21.06155014038086
1585826181.9431312,48650,24.672269821166992
1585826399.4880803,48850,32.074649810791016
1585826452.9786882,48900,15.895636558532715
1585826506.6110318,48950,12.604588508605957
1585826560.3244483,49000,17.549604415893555
1585826721.91611,49150,18.736894607543945
1585826775.616705,49200,20.645843505859375
1585826829.444868,49250,14.738626480102539
1585826990.9802852,49400,18.276939392089844
1585827044.6739502,49450,11.529302597045898
1585827476.1088297,49850,14.29226016998291
1585827693.2356334,50050,7.7771830558776855
1585827801.1687603,50150,17.561792373657227
1585827909.1873147,50250,35.36534881591797
1585827963.5877573,50300,18.11507225036621
1585828125.749913,50450,14.731493949890137
1585828287.5205789,50600,18.403804779052734
1585828343.8627484,50650,23.349599838256836
1585828401.166067,50700,10.868988037109375
1585828458.100499,50750,12.884556770324707
1585828629.1694098,50900,8.240201950073242
1585829060.9601073,51300,22.440357208251953
1585829168.5139318,51400,23.054767608642578
1585829384.4418595,51600,21.62447738647461
1585829438.3223338,51650,10.70621395111084
1585829600.793963,51800,16.495487213134766
1585829708.9037428,51900,7.399558067321777
1585829817.0005395,52000,22.315467834472656
1585830086.0148637,52250,11.285280227661133
1585830462.692519,52600,17.05685043334961
1585830516.3727202,52650,22.898727416992188
1585830677.7925787,52800,15.308913230895996
1585830785.8170784,52900,29.49692153930664
1585831108.7145596,53200,26.994598388671875
1585831162.3724556,53250,15.190352439880371
1585831270.276257,53350,9.83498477935791
1585831378.6908126,53450,16.395517349243164
1585831596.129207,53650,24.46626091003418
1585831812.6980064,53850,16.14795684814453
1585831920.244192,53950,31.766748428344727
1585832189.6872807,54200,17.59184455871582
1585832243.3787262,54250,14.838147163391113
1585832297.4298818,54300,24.2718448638916
1585832673.6977446,54650,15.12992000579834
1585832728.0203767,54700,26.838218688964844
1585833050.6143184,55000,23.828857421875
1585833266.2946646,55200,17.801227569580078
1585833320.0586405,55250,20.507854461669922
1585833373.9683027,55300,15.030253410339355
1585833862.0763671,55750,26.25957679748535
1585833969.6778123,55850,11.87924575805664
1585834132.4506164,56000,8.666264533996582
1585834457.8967054,56300,11.552214622497559
1585834511.2690434,56350,18.097368240356445
1585834726.6718183,56550,14.109322547912598
1585834888.1298413,56700,21.718093872070312
1585834941.9719226,56750,14.69947624206543
1585834995.9961028,56800,19.81302261352539
1585835751.6987865,57500,30.44572639465332
1585835914.6587903,57650,19.793903350830078
1585836077.1471696,57800,18.031259536743164
1585836131.515779,57850,10.940608024597168
1585836185.8117156,57900,14.979873657226562
1585836349.1419985,58050,40.71146774291992
1585836403.5111785,58100,20.25379180908203
1585836458.220921,58150,23.569852828979492
1585837558.5981066,59050,13.700959205627441
1585837668.9751906,59150,20.470579147338867
1585837723.652875,59200,25.547035217285156
1585837831.7463744,59300,12.633193016052246
1585837885.7784824,59350,17.37812614440918
1585838209.1809604,59650,25.678422927856445
1585838262.8871486,59700,14.244484901428223
1585838370.172642,59800,16.37279510498047
1585838478.1438107,59900,23.78826904296875
1585838586.8189826,60000,29.344951629638672
1585838695.3373225,60100,23.71579360961914
1585838857.836267,60250,21.138256072998047
1585838965.243732,60350,11.399189949035645
1585839072.9998405,60450,13.584086418151855
1585839181.129842,60550,22.52400779724121
1585839290.7568648,60650,12.186629295349121
1585839400.0114207,60750,20.314090728759766
1585839947.5754836,61250,22.37313461303711
1585840162.137267,61450,17.29553985595703
1585840377.592823,61650,23.915273666381836
1585840431.2984781,61700,17.920549392700195
1585840484.7294893,61750,22.072391510009766
1585840593.0312471,61850,23.613740921020508
1585840754.8233724,62000,14.215785026550293
1585840921.1114824,62150,19.916412353515625
1585841030.4174244,62250,17.33523178100586
1585841192.8056085,62400,13.397856712341309
1585841516.729837,62700,9.827252388000488
1585841625.7948651,62800,18.265865325927734
1585841735.8213656,62900,19.706037521362305
1585841792.4060974,62950,22.260698318481445
1585841963.7186894,63100,12.484537124633789
1585842020.539427,63150,32.19700241088867
1585842075.8126714,63200,11.772181510925293
1585842241.8815906,63350,15.104513168334961
1585842681.592221,63750,21.730451583862305
1585842957.8514876,64000,15.866777420043945
1585843066.8535511,64100,19.159151077270508
1585843393.3257189,64400,22.903039932250977
1585843610.0697231,64600,9.736347198486328
1585843664.0367956,64650,12.665584564208984
1585843717.9213667,64700,16.834314346313477
1585843771.9061694,64750,10.762128829956055
1585844094.8226695,65050,18.272668838500977
1585844255.9712262,65200,11.72476863861084
1585844635.9848764,65550,27.925750732421875
1585844744.8146815,65650,10.328012466430664
1585844906.8231654,65800,15.741372108459473
1585844960.8890836,65850,30.95547103881836
1585845125.3549068,66000,15.455187797546387
1585845449.3357623,66300,16.529109954833984
1585845558.9634805,66400,9.055943489074707
1585845722.2695317,66550,23.35065269470215
1585845888.2054563,66700,6.518425464630127
1585845943.618373,66750,13.034317970275879
1585845999.183848,66800,16.653030395507812
1585846053.6879647,66850,14.024863243103027
1585846108.1174083,66900,12.888367652893066
1585846435.422304,67200,17.210588455200195
1585846766.8209357,67500,9.61697769165039
1585847097.4575179,67800,16.35980796813965
1585847326.0737205,68000,11.104040145874023
1585847451.1518033,68100,12.041756629943848
1585847790.0478323,68350,16.558359146118164
1585848035.5026007,68550,15.725610733032227
1585848441.0615718,68900,11.68067741394043
1585848557.03107,69000,10.64981746673584
1585848744.5404463,69150,20.44472312927246
1585848880.0263352,69250,7.5993123054504395
1585848950.296347,69300,13.448140144348145
1585849156.0246987,69450,19.77084732055664
1585849223.2542105,69500,20.13052749633789
1585849353.1864092,69600,30.214242935180664
1585849415.4649017,69650,18.89690399169922
1585849595.7845776,69800,14.234607696533203
1585850569.9031413,70650,15.991047859191895
1585850627.6404843,70700,23.53466033935547
1585850683.804634,70750,28.31191062927246
1585850958.0050902,71000,13.882462501525879
1585851127.371177,71150,6.944607734680176
1585851345.519093,71350,32.19086837768555
1585851399.0806272,71400,11.967934608459473
1585851453.1716864,71450,20.28213119506836
1585851669.1272297,71650,12.579423904418945
1585851723.4519663,71700,14.570795059204102
1585851778.6034446,71750,26.230701446533203
1585851887.3594608,71850,16.00070571899414
1585851996.1183739,71950,20.69908332824707
1585852105.3424437,72050,12.998446464538574
1585852212.7425542,72150,20.378578186035156
1585852648.0480986,72550,11.007251739501953
1585852919.849613,72800,21.135807037353516
1585852974.856269,72850,24.85387420654297
1585853463.5254753,73300,18.806278228759766
1585853517.3007078,73350,6.649467468261719
1585854110.3717446,73900,21.224882125854492
1585854550.57243,74300,22.453886032104492
1585854606.352174,74350,11.416955947875977
1585854770.5250823,74500,21.302309036254883
1585854883.0818698,74600,11.53398609161377
1585854939.9442875,74650,15.04161548614502
1585855391.6140132,75050,9.04716968536377
1585855446.4868903,75100,19.166980743408203
1585855500.97679,75150,15.64540958404541
1585855555.9541368,75200,22.733776092529297
1585855724.2699502,75350,21.604393005371094
1585855843.1149724,75450,9.837287902832031
1585855911.3425517,75500,11.345314979553223
1585855978.5989695,75550,14.43358039855957
1585856501.8114872,75950,10.829161643981934
1585856783.0138369,76200,6.995506286621094
1585856837.300249,76250,13.084786415100098
1585857000.2424958,76400,11.612874984741211
1585857378.180049,76750,11.725683212280273
1585857485.8966098,76850,24.6883602142334
1585858030.638729,77350,25.502166748046875
1585858299.4491389,77600,17.64083480834961
1585858353.349358,77650,9.002796173095703
1585858461.250687,77750,15.43438720703125
1585858515.5489216,77800,11.559545516967773
1585858842.4219844,78100,14.678730964660645
1585858896.8764095,78150,15.071280479431152
1585859222.1548295,78450,33.45131301879883
1585859276.019662,78500,23.273334503173828
1585859761.3400233,78950,17.87932586669922
1585859976.9917152,79150,21.58416175842285
1585860085.0801349,79250,8.768484115600586
1585860301.8461022,79450,9.343415260314941
1585860799.44933,79900,18.526100158691406
1585860914.0148127,80000,18.67486572265625
1585861081.7011054,80150,23.557327270507812
1585861194.5936944,80250,32.48410415649414
1585861252.9189487,80300,14.748615264892578
1585861537.1216965,80550,14.445159912109375
1585861700.9966693,80700,9.813804626464844
1585861970.7712352,80950,17.355260848999023
1585862078.3201814,81050,8.507290840148926
1585862304.6577415,81250,12.148472785949707
1585862414.2681584,81350,26.108699798583984
1585862469.455285,81400,11.255827903747559
1585862524.6946402,81450,8.464977264404297
1585862633.5373106,81550,11.080031394958496
1585862742.7676075,81650,25.30965805053711
1585863014.0580356,81900,27.070127487182617
1585863176.8283694,82050,11.416152000427246
1585863285.2743871,82150,11.297587394714355
1585863447.095343,82300,27.562824249267578
1585863608.7370048,82450,14.11129379272461
1585863825.4724045,82650,25.36850357055664
1585864206.327829,83000,19.04987907409668
1585864260.9776,83050,18.405683517456055
1585864315.8130126,83100,13.478893280029297
1585864694.1534648,83450,14.888452529907227
1585864802.0865052,83550,26.558025360107422
1585864909.9031656,83650,11.013891220092773
1585865073.490828,83800,23.988019943237305
1585865127.7355864,83850,9.588424682617188
1585865452.1521683,84150,14.012566566467285
1585865507.2418988,84200,11.097455978393555
1585865723.9529908,84400,13.440743446350098
1585865939.7547264,84600,19.051429748535156
1585866102.0536268,84750,24.688446044921875
1585866155.7190251,84800,37.27754592895508
1585866209.5878582,84850,23.26630210876465
1585866263.4405942,84900,13.266471862792969
1585866371.2479997,85000,26.004638671875
1585866536.1341803,85150,19.891820907592773
1585866936.6381319,85500,10.30903148651123
1585866991.0936222,85550,25.279020309448242
1585867264.5857017,85800,29.464433670043945
1585867374.248792,85900,21.23905372619629
1585867430.8168995,85950,7.241265773773193
1585867489.3609867,86000,12.400279998779297
1585868070.7867918,86450,21.94521141052246
1585868341.2629952,86650,13.479571342468262
1585868474.021054,86750,18.706483840942383
1585868535.569461,86800,24.88834571838379
1585868659.6161325,86900,10.609369277954102
1585868950.426601,87150,9.408909797668457
1585869004.4196765,87200,7.851099014282227
1585869113.2465117,87300,24.042884826660156
1585869169.0673473,87350,17.93214988708496
1585869224.7622883,87400,23.082725524902344
1585869394.1039703,87550,10.902167320251465
1585869506.6441457,87650,31.02706527709961
1585869619.3548675,87750,15.400557518005371
1585870130.1386974,88200,23.666427612304688
1585870292.9440246,88350,21.823219299316406
1585870786.0242438,88800,20.653785705566406
1585871114.4117813,89100,23.739599227905273
1585871169.0054786,89150,14.966862678527832
1585871502.6087964,89450,12.141090393066406
1585871559.492342,89500,7.4341840744018555
1585871616.624934,89550,28.12761688232422
1585871731.0553603,89650,9.042150497436523
1585872084.9449496,89950,7.73571252822876
1585872469.4138541,90250,10.961461067199707
1585872527.8118885,90300,23.959243774414062
1585872990.4321194,90700,9.257974624633789
1585873051.652573,90750,11.475275993347168
1585873234.7727542,90900,27.8363094329834
1585873440.670109,91050,8.603154182434082
1585873709.6455894,91250,19.358793258666992
1585873843.4946015,91350,15.828051567077637
1585874076.558049,91550,18.659090042114258
1585874400.6512668,91850,10.654314041137695
1585874617.989957,92050,9.729914665222168
1585874672.2478948,92100,23.717105865478516
1585874841.1630886,92250,29.196855545043945
1585875127.06288,92500,26.704805374145508
1585875355.8834965,92700,13.029932022094727
1585875471.6113732,92800,19.052705764770508
1585875586.8518555,92900,11.785919189453125
1585875649.774478,92950,15.470251083374023
1585875714.8742447,93000,10.10497760772705
1585876174.150435,93350,11.038397789001465
1585876309.312657,93450,17.902856826782227
1585876376.0365732,93500,20.163406372070312
1585876744.038913,93800,17.28845977783203
1585876801.6536868,93850,21.810609817504883
1585876859.5378227,93900,13.324124336242676
1585876974.1133404,94000,16.079967498779297
1585877088.4061713,94100,13.974438667297363
1585877794.9299283,94700,9.714448928833008
1585878318.3602931,95150,21.73735237121582
1585878547.0671208,95350,12.636739730834961
1585878844.3752298,95600,10.19494915008545
1585878903.8218832,95650,12.867941856384277
1585879206.5815659,95900,18.336273193359375
1585879270.17309,95950,12.103111267089844
1585879332.6801274,96000,13.573287010192871
1585879602.0868807,96200,25.81043243408203
1585879667.6555314,96250,22.94975471496582
1585880015.042109,96550,9.101698875427246
1585880231.823508,96750,27.938356399536133
1585880286.868969,96800,19.643287658691406
1585880340.944429,96850,14.476995468139648
1585880449.1989028,96950,11.937734603881836
1585880504.1606534,97000,25.527780532836914
1585880774.836392,97250,15.260167121887207
1585880938.1672912,97400,23.21927833557129
1585881046.9987528,97500,14.582320213317871
1585881209.238402,97650,22.09790802001953
1585881372.9992094,97800,18.77566909790039
1585881534.478507,97950,16.13905906677246
1585881642.2111263,98050,13.940962791442871
1585881965.1455023,98350,17.146787643432617
1585882019.2443497,98400,12.795562744140625
1585882127.4827077,98500,10.772465705871582
1585882235.9332173,98600,21.01739501953125
1585882728.1280427,99050,7.2483978271484375
1585882782.2950063,99100,5.494453430175781
1585882836.4129457,99150,15.605206489562988
1585882890.266498,99200,13.47171688079834
1585883648.4646013,99900,23.389041900634766
1585883863.1505706,100100,5.7031073570251465
1585884078.1717236,100300,19.903522491455078
1585884132.1571732,100350,10.528109550476074
1585884295.168175,100500,10.46535873413086
1585884349.2903638,100550,7.007045269012451
1585884511.6851444,100700,17.007177352905273
1585884620.3670104,100800,19.14250373840332
1585884728.9376113,100900,18.79121971130371
1585885003.9917424,101150,10.612346649169922
1585885174.293806,101300,18.383533477783203
1585885283.7153766,101400,18.842721939086914
1585885338.217163,101450,30.394298553466797
1585885446.3913898,101550,17.2104549407959
1585885609.2702541,101700,30.494422912597656
1585885776.7264793,101850,15.38257884979248
1585885886.549282,101950,14.876708030700684
1585886050.5954163,102100,14.172088623046875
1585886211.7841597,102250,26.263748168945312
1585886265.4390092,102300,19.004352569580078
1585886426.6633363,102450,19.090173721313477
1585886587.7577767,102600,13.49561882019043
1585887020.2272654,103000,15.897459030151367
1585887074.8962772,103050,14.678604125976562
1585887182.6800237,103150,17.0367374420166
1585887452.360291,103400,16.32588005065918
1585887737.2478411,103650,11.42575740814209
1585887798.1752527,103700,20.9107723236084
1585887865.9840605,103750,6.612599849700928
1585888003.348415,103850,6.604366302490234
1585888070.0893307,103900,16.76215171813965
1585888205.179463,104000,24.774568557739258
1585888329.1721485,104100,21.720836639404297
1585888513.7836926,104250,12.569866180419922
1585888573.0311866,104300,9.830950736999512
1585888804.9978652,104500,15.53313159942627
1585889075.7929552,104750,28.28619956970215
1585889183.2760246,104850,14.824755668640137
1585889507.7519472,105150,7.970149993896484
1585889561.8910983,105200,16.73477554321289
1585889616.440726,105250,11.259921073913574
1585889670.979048,105300,10.111333847045898
1585889725.7011595,105350,20.6618595123291
1585889888.7943118,105500,18.048542022705078
1585889998.1262188,105600,24.39351463317871
1585890160.616561,105750,16.19837188720703
1585890215.4059088,105800,19.056852340698242
1585890379.8948858,105950,20.763713836669922
1585890489.6190577,106050,18.062240600585938
1585890598.5033424,106150,22.595922470092773
1585890653.75679,106200,23.895462036132812
1585890708.7511218,106250,16.79884147644043
1585890926.9246159,106450,17.938093185424805
1585891143.599399,106650,35.325965881347656
1585891198.0522738,106700,9.992582321166992
1585891252.2787545,106750,26.083572387695312
1585891469.2974904,106950,9.901911735534668
1585891523.2496476,107000,17.877994537353516
1585891632.33336,107100,20.175254821777344
1585891686.9949126,107150,35.23898696899414
1585891795.4397109,107250,9.49930477142334
1585891849.7740479,107300,8.395709991455078
1585891903.9581127,107350,18.86623191833496
1585892012.1785645,107450,18.739938735961914
1585892066.7087653,107500,23.123714447021484
1585892175.550458,107600,20.080520629882812
1585892338.3541074,107750,13.22259521484375
1585892446.4143062,107850,11.221203804016113
1585892500.6230059,107900,21.77529525756836
1585892824.0522482,108200,23.89105224609375
1585892877.9652264,108250,22.711288452148438
1585892932.2712145,108300,14.65517520904541
1585893150.1065876,108500,9.759248733520508
1585893259.2524555,108600,8.675760269165039
1585893368.4163225,108700,17.820941925048828
1585893585.2046912,108900,14.405137062072754
1585893966.1081924,109250,13.165477752685547
1585894129.2782793,109400,21.693103790283203
1585894237.9776495,109500,18.888193130493164
1585894347.1256633,109600,7.490227699279785
1585894401.256922,109650,16.680757522583008
1585894617.643334,109850,24.432151794433594
1585894725.2069008,109950,18.181962966918945
1585894779.2575874,110000,30.51512336730957
1585894833.3247628,110050,32.9476318359375
1585894995.9510083,110200,15.324121475219727
1585895212.8720636,110400,14.707515716552734
1585895267.3757577,110450,19.287729263305664
1585895430.790604,110600,12.542370796203613
1585895595.4728298,110750,21.01590919494629
1585896154.111896,111250,9.391036987304688
1585896208.5517714,111300,23.556238174438477
1585896371.62606,111450,18.865663528442383
1585896425.364468,111500,16.513057708740234
1585896533.918877,111600,19.3314151763916
1585896696.7366474,111750,11.552931785583496
1585896805.5970423,111850,29.561019897460938
1585896858.9602,111900,33.94112014770508
1585896967.2020373,112000,17.511857986450195
1585897021.132292,112050,20.240224838256836
1585897074.8586125,112100,8.733682632446289
1585897128.962326,112150,17.925106048583984
1585897237.2701452,112250,9.93904972076416
1585897345.3892517,112350,12.524636268615723
1585897399.9429963,112400,13.388927459716797
1585897629.8198383,112600,13.755477905273438
1585897687.547226,112650,11.233244895935059
1585897803.1620257,112750,9.043100357055664
1585897981.1632156,112900,8.55556869506836
1585898103.739841,113000,27.374343872070312
1585898289.8767545,113150,17.17667007446289
1585898986.618743,113750,8.18359088897705
1585899213.3424103,113950,10.734018325805664
1585899377.6224713,114100,12.618474960327148
1585899649.1062338,114350,16.316499710083008
1585899758.596157,114450,18.606678009033203
1585899922.7772932,114600,10.166668891906738
1585900249.1000652,114900,16.14589500427246
1585900303.8886373,114950,17.945863723754883
1585900412.4676373,115050,16.36055564880371
1585900573.602683,115200,12.780057907104492
1585900736.1650689,115350,17.80091667175293
1585900791.4013972,115400,27.07892608642578
1585900847.1977859,115450,8.795711517333984
1585901343.1966257,115900,9.727866172790527
1585901399.0672307,115950,13.057967185974121
1585901455.3153524,116000,8.93958568572998
1585901511.0873437,116050,10.049116134643555
1585901623.008608,116150,8.346165657043457
1585901733.341026,116250,18.12567710876465
1585901903.2350447,116400,10.796208381652832
1585902227.751543,116650,13.839986801147461
1585902362.2312515,116750,13.320657730102539
1585902427.2010305,116800,32.54127883911133
1585902493.9337091,116850,34.4405632019043
1585902561.4316845,116900,16.646196365356445
1585903021.818457,117300,10.043906211853027
1585903537.4699214,117750,16.450580596923828
1585903848.67461,118000,9.431007385253906
1585904303.356719,118400,33.08359909057617
1585904358.78241,118450,36.39822769165039
1585904526.3220866,118600,26.492891311645508
1585904742.2380524,118800,5.541571617126465
1585904904.243512,118950,20.057151794433594
1585905120.64065,119150,18.11430549621582
1585905282.5939326,119300,13.256537437438965
1585905446.547445,119450,33.746097564697266
1585905502.1824653,119500,26.474746704101562
1585905557.5528553,119550,19.30365562438965
1585905666.6550686,119650,11.90352725982666
1585906105.109088,120050,18.171344757080078
1585906213.0833344,120150,20.321908950805664
1585906320.6522443,120250,8.393135070800781
1585906428.6570587,120350,28.054256439208984
1585906698.4164035,120600,20.324411392211914
1585906972.2732244,120850,25.71860694885254
1585907415.9106243,121250,11.364368438720703
1585907472.7907465,121300,19.55742835998535
1585907528.5713103,121350,8.664166450500488
1585907745.4725726,121550,20.265178680419922
1585907906.9800766,121700,24.396987915039062
1585908068.968999,121850,21.54673194885254
1585908536.5499368,122250,14.668407440185547
1585908661.1118433,122350,18.39385223388672
1585908922.3802269,122550,10.848806381225586
1585908987.2178047,122600,19.54311180114746
1585909046.923431,122650,10.507006645202637
1585909108.354928,122700,24.31904411315918
1585909245.1159816,122800,16.024402618408203
1585909380.5946624,122900,12.649056434631348
1585909581.108081,123050,32.17040252685547
1585909967.8281322,123350,26.765901565551758
1585910087.576544,123450,36.574462890625
1585910488.3849401,123800,16.493911743164062
1585910707.4618316,124000,10.715150833129883
1585910818.2245739,124100,15.38813591003418
1585911044.6990185,124300,21.308263778686523
1585911101.8096695,124350,28.68463134765625
1585911211.9306602,124450,11.64837646484375
1585911384.2462652,124600,16.974000930786133
1585911499.3949409,124700,34.008399963378906
1585911668.8955147,124850,21.133562088012695
1585911781.7323468,124950,8.502791404724121
1585911957.5014493,125100,15.522171020507812
1585912026.746534,125150,12.838408470153809
1585912092.5422063,125200,25.3316707611084
1585912719.3655443,125700,5.583410739898682
1585912778.1169715,125750,33.871917724609375
1585912891.099568,125850,13.384642601013184
1585912947.3845153,125900,15.085958480834961
1585913002.992431,125950,23.150619506835938
1585913058.873754,126000,19.44496726989746
1585913224.0276623,126150,18.530536651611328
1585913278.5756965,126200,21.00518798828125
1585913387.8425567,126300,17.005210876464844
1585913550.344995,126450,8.367326736450195
1585913657.991659,126550,19.51220703125
1585913765.8930848,126650,10.483859062194824
1585913874.1122732,126750,18.11223793029785
1585914368.311993,127200,18.70075798034668
1585914602.4299493,127400,8.469158172607422
1585914725.4942322,127500,25.936365127563477
1585914851.2518399,127600,19.606111526489258
1585914972.3212144,127700,17.053476333618164
1585915096.9472938,127800,20.420246124267578
1585915158.2969718,127850,18.935510635375977
1585915338.8546133,128000,35.06626510620117
1585915695.1643207,128300,10.003045082092285
1585915753.0073416,128350,20.895549774169922
1585915980.0131102,128550,17.485002517700195
1585916156.7717075,128700,19.37517547607422
1585916332.0259535,128850,16.08116340637207
1585916445.4882293,128950,18.5208797454834
1585916504.072334,129000,9.20615005493164
1585916745.4172196,129200,7.957758903503418
1585917007.6234653,129400,15.017521858215332
1585917209.9897218,129550,20.46782875061035
1585917273.3332033,129600,10.752690315246582
1585917332.2634428,129650,10.405837059020996
1585917389.6001709,129700,25.855627059936523
1585917558.1914377,129850,21.362289428710938
1585917781.1685503,130050,10.910591125488281
1585918107.763105,130350,21.878232955932617
1585918161.4115243,130400,26.732908248901367
1585918327.3053212,130550,16.310575485229492
1585918608.4978702,130800,14.135790824890137
1585918773.867933,130950,11.03712272644043
1585918828.3241773,131000,13.2363920211792
1585918939.1048207,131100,17.15341567993164
1585919049.8249812,131200,28.57417869567871
1585919160.7792974,131300,7.679967880249023
1585919214.9178867,131350,8.702048301696777
1585919379.1422164,131500,16.32475471496582
1585919435.7209775,131550,14.131712913513184
1585919548.537238,131650,5.450141906738281
1585919716.2504017,131800,13.78479290008545
1585919772.1440806,131850,17.032915115356445
1585919880.490075,131950,23.11174774169922
1585920205.3434386,132250,6.11149787902832
1585920368.9609401,132400,30.222959518432617
1585920539.6356614,132550,16.194171905517578
1585920595.5380342,132600,16.561281204223633
1585920821.3026876,132800,22.482852935791016
1585921157.9018466,133100,15.487190246582031
1585921951.3839996,133750,15.96493911743164
1585922195.3883557,133950,15.595396995544434
1585922308.9567592,134050,21.03404426574707
1585922601.7362657,134300,16.504682540893555
1585922773.5360713,134450,17.946895599365234
1585922885.1624644,134550,11.797614097595215
1585923109.6649568,134750,18.163799285888672
1585923393.1250463,135000,15.807636260986328
1585923619.854362,135200,21.69355583190918
1585923852.364153,135400,11.079815864562988
1585924025.591364,135550,8.786040306091309
1585924532.5924776,136000,26.4903564453125
1585924873.0521038,136300,21.140193939208984
1585925450.9974833,136800,12.37569522857666
1585925508.54024,136850,22.149574279785156
1585925568.3186727,136900,13.181053161621094
1585925743.5631287,137050,8.560876846313477
1585925799.7222438,137100,18.5124454498291
1585926071.3325608,137350,10.88821792602539
1585926180.932507,137450,13.837202072143555
1585926406.0143456,137650,13.520071029663086
1585926462.901989,137700,28.796354293823242
1585926518.9485722,137750,24.325223922729492
1585926575.2471056,137800,17.200252532958984
1585926631.6868937,137850,12.474157333374023
1585926687.990659,137900,6.618583679199219
1585926743.8910046,137950,24.3765926361084
1585927194.7848759,138350,15.226164817810059
1585927364.148491,138500,9.348196029663086
1585927696.6234834,138800,13.169508934020996
1585928487.0938563,139500,18.812862396240234
1585928542.9541857,139550,20.40083122253418
1585928600.9529881,139600,14.010307312011719
1585929053.90688,139950,20.751501083374023
1585929390.531238,140200,10.511255264282227
1585929587.543615,140350,19.332862854003906
1585929713.9120955,140450,17.29692268371582
1585929771.4457793,140500,18.726472854614258
1585929828.4904761,140550,12.181272506713867
1585929884.561784,140600,11.38854694366455
1585930099.5211096,140800,33.858253479003906
1585930531.9915874,141200,20.28554916381836
1585930587.2235494,141250,19.449308395385742
1585930755.933906,141400,22.10985565185547
1585930866.5239258,141500,19.545940399169922
1585930921.8592947,141550,18.918336868286133
1585931029.4396994,141650,12.208255767822266
1585931682.3306396,142250,13.226415634155273
1585931791.4419646,142350,33.385807037353516
1585931955.171607,142500,17.189804077148438
1585932063.3987486,142600,7.638460159301758
1585932334.189769,142850,10.543157577514648
1585932495.339193,143000,13.858368873596191
1585932656.3409426,143150,15.253006935119629
1585933144.363591,143600,14.365464210510254
1585933198.767249,143650,12.337512016296387
1585933361.3901677,143800,14.845376968383789
1585933524.8036063,143950,10.938828468322754
1585933634.1146064,144050,17.86785316467285
1585933688.209122,144100,24.816547393798828
1585934016.757983,144400,11.818483352661133
1585934179.569569,144550,18.29301643371582
1585934233.7526443,144600,17.01095962524414
1585934503.2018883,144850,8.311427116394043
1585934611.6662161,144950,12.159097671508789
1585934719.7159941,145050,15.372520446777344
1585934882.159463,145200,16.240034103393555
1585934936.0399988,145250,22.310089111328125
1585934990.4674861,145300,18.108610153198242
1585935372.0333893,145650,14.56820297241211
1585935644.357038,145900,12.809051513671875
1585935752.1660805,146000,25.413883209228516
1585935806.2407043,146050,9.206162452697754
1585935860.1529162,146100,15.387227058410645
1585936076.0214465,146300,21.201618194580078
1585936129.8179977,146350,21.83089828491211
1585936456.2801635,146650,13.656769752502441
1585936674.671586,146850,33.14640426635742
1585936838.4269488,147000,11.999073028564453
1585936892.631798,147050,8.925065040588379
1585937001.878644,147150,19.316059112548828
1585937380.721128,147500,15.56750774383545
1585937434.925319,147550,16.520193099975586
1585937704.878834,147800,7.999434471130371
1585938357.5778267,148400,24.634328842163086
1585938629.7445264,148650,9.69251823425293
1585938738.1810849,148750,21.388195037841797
1585938792.7263908,148800,21.207382202148438
1585938957.4693618,148950,21.821578979492188
1585939012.1483114,149000,9.765508651733398
1585939506.2296038,149450,11.1555757522583
1585939832.4518614,149750,16.827957153320312
1585940050.2341685,149950,23.035634994506836
1585940104.4582875,150000,16.248632431030273
1585940319.8320181,150200,22.55638885498047
1585940426.9134278,150300,20.19036865234375
1585940535.6639938,150400,16.336915969848633
1585940644.1651213,150500,16.927133560180664
1585940752.5296025,150600,24.42343521118164
1585940916.9452546,150750,11.353080749511719
1585940971.5287662,150800,17.940994262695312
1585941026.8581278,150850,12.427763938903809
1585941197.6524067,151000,17.41094970703125
1585941256.1236544,151050,17.271081924438477
1585941315.2892044,151100,6.102177619934082
1585941373.5554516,151150,14.99306583404541
1585941543.3335435,151300,24.444547653198242
1585941598.1667252,151350,26.444238662719727
1585941652.568767,151400,9.928876876831055
1585941815.1553082,151550,7.686922073364258
1585941869.3975215,151600,10.027660369873047
1585941977.8013113,151700,13.785670280456543
1585942032.4317775,151750,36.523704528808594
1585942251.1330836,151950,23.363862991333008
1585942360.3754942,152050,12.193326950073242
1585942415.1168246,152100,22.0361270904541
1585942470.1511521,152150,14.425436019897461
1585942689.3826919,152350,15.17461109161377
1585942797.4715595,152450,8.761707305908203
1585942905.5045722,152550,18.528690338134766
1585943067.781931,152700,25.443418502807617
1585943556.8321903,153150,35.734527587890625
1585943720.6579568,153300,16.305753707885742
1585943828.6402867,153400,10.753889083862305
1585943937.5847268,153500,26.216773986816406
1585944047.0573537,153600,14.669849395751953
1585944155.5216792,153700,10.569957733154297
1585944318.471038,153850,16.746950149536133
1585944427.7851071,153950,17.811304092407227
1585944647.2974885,154150,8.841962814331055
1585944865.6093225,154350,24.208629608154297
