Wall time,Step,Value
1583794669.74756,100,115.97984313964844
1583794691.667146,200,115.9468765258789
1583794714.5947287,300,105.32522583007812
1583794725.9228384,350,103.39224243164062
1583794749.1274924,450,94.41914367675781
1583794772.3879445,550,90.72512817382812
1583794784.1377382,600,81.63001251220703
1583794795.813657,650,79.04353332519531
1583794807.4822595,700,78.78297424316406
1583794819.1935918,750,74.04611206054688
1583794830.9797056,800,71.25962829589844
1583794842.7996714,850,66.34898376464844
1583794854.4274805,900,61.409175872802734
1583794866.2162893,950,60.535091400146484
1583794878.0802908,1000,69.2098159790039
1583794889.7809193,1050,52.28292465209961
1583794901.4004602,1100,46.6825065612793
1583794912.958137,1150,43.06096267700195
1583794936.127956,1250,36.3108024597168
1583794947.7878368,1300,35.995201110839844
1583794971.0673997,1400,23.891372680664062
1583795006.046767,1550,16.679824829101562
1583795017.745313,1600,19.82094955444336
1583795029.3875117,1650,22.918418884277344
1583795041.2361817,1700,18.259035110473633
1583795052.9999418,1750,27.090290069580078
1583795076.6923568,1850,11.21696662902832
1583795111.7177954,2000,16.768625259399414
1583795123.4063416,2050,18.16654396057129
1583795146.8766987,2150,15.737027168273926
1583795158.5219474,2200,17.15265655517578
1583795170.3506587,2250,23.229469299316406
1583795182.24327,2300,15.252754211425781
1583795194.0131629,2350,16.296783447265625
1583795205.8171225,2400,20.880428314208984
1583795228.9595726,2500,20.032310485839844
1583795240.6280248,2550,15.859355926513672
1583795275.3970048,2700,16.222232818603516
1583795287.157277,2750,20.559072494506836
1583795298.859368,2800,19.551776885986328
1583795310.7820945,2850,20.100446701049805
1583795322.7425592,2900,22.87764549255371
1583795358.5460129,3050,16.894451141357422
1583795370.4769847,3100,25.38801383972168
1583795382.3646395,3150,18.180225372314453
1583795394.2346225,3200,21.562698364257812
1583795406.0411155,3250,18.893878936767578
1583795417.7008011,3300,17.00633430480957
1583795429.5484486,3350,16.44706153869629
1583795441.4111257,3400,15.251021385192871
1583795453.1448758,3450,15.44582748413086
1583795464.90689,3500,21.780797958374023
1583795488.2404623,3600,15.539793968200684
1583795499.939391,3650,15.954081535339355
1583795511.7915888,3700,11.230061531066895
1583795523.5775023,3750,20.230815887451172
1583795547.162231,3850,13.970181465148926
1583795558.8523965,3900,15.114341735839844
1583795570.6861515,3950,19.601591110229492
1583795582.4670336,4000,12.66727352142334
1583795606.1970527,4100,13.82121467590332
1583795617.9733188,4150,17.597219467163086
1583795641.2196763,4250,11.766021728515625
1583795653.0073833,4300,16.039045333862305
1583795664.6643915,4350,16.865598678588867
1583795676.3526754,4400,18.875732421875
1583795688.0426466,4450,14.430243492126465
1583795699.6694286,4500,12.856523513793945
1583795723.0556035,4600,17.10173797607422
1583795734.721307,4650,20.708471298217773
1583795746.3578978,4700,13.5929594039917
1583795757.9945805,4750,17.066272735595703
1583795781.197981,4850,15.953139305114746
1583795816.1658092,5000,10.008255958557129
1583795827.8237948,5050,18.4676513671875
1583795839.4507647,5100,12.691699028015137
1583795851.2243106,5150,15.258724212646484
1583795862.9601276,5200,18.193025588989258
1583795874.7264338,5250,20.20242691040039
1583795886.3797925,5300,13.056177139282227
1583795898.1613822,5350,12.643421173095703
1583795933.0417407,5500,12.217867851257324
1583795944.7152967,5550,14.802746772766113
1583795979.5788355,5700,9.132781028747559
1583796014.7125778,5850,12.795281410217285
1583796026.4223106,5900,10.437888145446777
1583796038.0299904,5950,11.681863784790039
1583796049.525958,6000,14.004048347473145
1583796061.146938,6050,11.239953994750977
1583796072.7236123,6100,14.346701622009277
1583796095.989318,6200,14.419915199279785
1583796107.6263702,6250,12.4208984375
1583796119.2500002,6300,11.678460121154785
1583796130.9298565,6350,13.276798248291016
1583796142.6145227,6400,12.234183311462402
1583796165.9589694,6500,11.251073837280273
1583796177.6955624,6550,15.1552095413208
1583796212.639836,6700,11.810372352600098
1583796247.7071545,6850,13.85190486907959
1583796259.3679519,6900,10.449182510375977
1583796282.9625661,7000,12.385705947875977
1583796306.4041648,7100,12.064866065979004
1583796318.0738301,7150,12.662631034851074
1583796329.8277454,7200,12.548768997192383
1583796341.5599248,7250,10.677648544311523
1583796353.2165732,7300,12.587789535522461
1583796364.7648954,7350,12.930403709411621
1583796387.8236833,7450,10.538182258605957
1583796399.4248092,7500,9.716480255126953
1583796411.046325,7550,12.29504108428955
1583796422.7147791,7600,12.920568466186523
1583796446.142203,7700,10.609445571899414
1583796457.711003,7750,9.86778736114502
1583796469.3342888,7800,10.765438079833984
1583796492.2425385,7900,10.307252883911133
1583796503.6850832,7950,10.709136009216309
1583796515.1871321,8000,11.721663475036621
1583796538.1041422,8100,9.820030212402344
1583796549.698498,8150,15.004623413085938
1583796572.9092977,8250,12.855382919311523
1583796584.5303137,8300,9.37334156036377
1583796607.7269647,8400,10.2398681640625
1583796619.4340696,8450,11.94041633605957
1583796631.1566076,8500,11.125086784362793
1583796654.4912086,8600,12.091687202453613
1583796666.0725794,8650,17.32326889038086
1583796677.747271,8700,10.99508285522461
1583796701.1122317,8800,15.389607429504395
1583796712.7349093,8850,9.91179370880127
1583796724.2181418,8900,11.9337158203125
1583796735.7096748,8950,11.162572860717773
1583796758.9791527,9050,12.510860443115234
1583796770.6140091,9100,10.244698524475098
1583796782.2950923,9150,13.789750099182129
1583796794.0428648,9200,9.493876457214355
1583796805.7166326,9250,10.825902938842773
1583796817.352222,9300,10.861721992492676
1583796828.990517,9350,10.01509952545166
1583796840.6848888,9400,9.010927200317383
1583796852.2988377,9450,13.817343711853027
1583796875.5852673,9550,10.803810119628906
1583796887.2075572,9600,9.666068077087402
1583796922.4934156,9750,11.334709167480469
1583796969.064055,9950,10.269307136535645
1583796980.6259446,10000,13.06931209564209
1583797003.817154,10100,9.263664245605469
1583797015.3144312,10150,11.991966247558594
1583797026.8269522,10200,6.966837406158447
1583797049.6698866,10300,11.121091842651367
1583797061.1810484,10350,8.046416282653809
1583797072.5000944,10400,7.360744476318359
1583797083.9000733,10450,8.606587409973145
1583797095.4566574,10500,6.4930925369262695
1583797130.2523406,10650,7.223842144012451
1583797141.7276864,10700,7.203559875488281
1583797153.2324624,10750,7.76082181930542
1583797164.741178,10800,7.026461124420166
1583797199.2522652,10950,8.300048828125
1583797210.6050115,11000,6.919690132141113
1583797222.2706323,11050,8.859041213989258
1583797233.9013855,11100,7.543525695800781
1583797245.493784,11150,6.932521820068359
1583797257.04048,11200,10.541016578674316
1583797280.299061,11300,7.040390491485596
1583797292.0426772,11350,7.344671249389648
1583797303.716371,11400,7.448907852172852
1583797327.0329275,11500,6.734863758087158
1583797338.518797,11550,7.079885959625244
1583797350.008184,11600,8.741732597351074
1583797361.6520925,11650,10.023571968078613
1583797373.3375492,11700,6.72027063369751
1583797385.042743,11750,7.548508167266846
1583797396.7143672,11800,6.881778717041016
1583797419.8228326,11900,6.2949981689453125
1583797431.5091283,11950,6.792177200317383
1583797454.8635242,12050,6.385952472686768
1583797466.4657469,12100,7.794167518615723
1583797478.1466749,12150,8.65133285522461
1583797501.4893105,12250,9.523289680480957
1583797513.1860142,12300,6.579617500305176
1583797524.9899414,12350,7.455089092254639
1583797536.7508292,12400,6.823653221130371
1583797548.4275632,12450,5.927793979644775
1583797559.9728742,12500,6.094449043273926
1583797571.604393,12550,9.554389953613281
1583797583.322194,12600,9.68751049041748
1583797595.1272123,12650,8.331777572631836
1583797606.864582,12700,7.870662689208984
1583797630.2410598,12800,9.000568389892578
1583797665.2369978,12950,6.971803188323975
1583797676.909282,13000,5.658537864685059
1583797688.5742717,13050,6.833609104156494
1583797700.075932,13100,7.600898742675781
1583797723.2240934,13200,6.647955894470215
1583797746.5046804,13300,6.276147842407227
1583797769.7322025,13400,6.0528974533081055
1583797793.0649512,13500,5.654029369354248
1583797816.3089046,13600,6.447422981262207
1583797827.9884202,13650,7.9669904708862305
1583797839.5716183,13700,6.685695648193359
1583797851.1916113,13750,6.352260112762451
1583797862.8088498,13800,7.45754861831665
1583797885.9616814,13900,5.896059513092041
1583797897.4769661,13950,5.440630912780762
1583797909.0318484,14000,5.709015846252441
1583797920.5908875,14050,9.559061050415039
1583797932.2017312,14100,8.06071662902832
1583797943.9011126,14150,10.020501136779785
1583797955.592792,14200,8.632902145385742
1583797967.2936769,14250,8.30105972290039
1583798025.9815948,14500,5.828346252441406
1583798049.2026372,14600,5.9869818687438965
1583798060.9492989,14650,6.710334777832031
1583798084.217342,14750,7.093396186828613
1583798095.9685261,14800,6.323120594024658
1583798107.5900006,14850,7.00670051574707
1583798119.1360087,14900,6.642609596252441
1583798130.773403,14950,8.51811408996582
1583798142.4906359,15000,6.900277137756348
1583798154.0635037,15050,8.542741775512695
1583798165.715212,15100,7.605287551879883
1583798177.3785236,15150,6.330403804779053
1583798188.95334,15200,7.4222092628479
1583798200.5122318,15250,7.162973880767822
1583798235.314064,15400,6.584392070770264
1583798247.0349722,15450,6.560375213623047
1583798270.7446957,15550,7.74656343460083
1583798306.0003216,15700,7.405331611633301
1583798317.83374,15750,7.359674453735352
1583798341.403443,15850,5.466789722442627
1583798353.1565363,15900,6.015686511993408
1583798364.9539738,15950,6.921374320983887
1583798376.8019938,16000,8.151541709899902
1583798388.620807,16050,5.156739711761475
1583798412.2982786,16150,6.909653663635254
1583798423.9390137,16200,6.163416385650635
1583798435.6787636,16250,6.680906295776367
1583798447.4700477,16300,7.986607074737549
1583798459.4042945,16350,5.8332343101501465
1583798471.2185757,16400,5.439068794250488
1583798482.9442344,16450,5.880795001983643
1583798506.5212953,16550,6.561800956726074
1583798518.4461563,16600,6.952508449554443
1583798542.2882972,16700,7.780725002288818
1583798566.0881763,16800,10.991101264953613
1583798589.7006147,16900,7.1995978355407715
1583798613.2329302,17000,7.063971519470215
1583798625.086792,17050,6.048508167266846
1583798636.9465837,17100,5.366212368011475
1583798648.6938646,17150,8.604453086853027
1583798660.2683365,17200,6.5156073570251465
1583798671.9410212,17250,7.046715259552002
1583798683.7170649,17300,6.429668426513672
1583798695.468504,17350,6.0768046379089355
1583798707.2164097,17400,7.68079137802124
1583798719.0429103,17450,10.150053024291992
1583798730.8823519,17500,5.227980613708496
1583798742.686568,17550,5.999248504638672
1583798754.505609,17600,6.178413391113281
1583798766.4068363,17650,8.358535766601562
1583798778.2422752,17700,5.4679059982299805
1583798790.0018816,17750,6.1181321144104
1583798813.323988,17850,5.876819610595703
1583798836.862475,17950,7.32425594329834
1583798848.6971042,18000,5.0146684646606445
1583798860.6453624,18050,12.315653800964355
1583798872.4243844,18100,8.323824882507324
1583798884.1165655,18150,6.170892238616943
1583798895.7729251,18200,5.5078125
1583798907.468538,18250,5.517734050750732
1583798919.252077,18300,6.0559000968933105
1583798930.9571414,18350,5.713244915008545
1583798942.8590205,18400,5.6515727043151855
1583798954.828529,18450,4.68715238571167
1583798978.463792,18550,6.1021928787231445
1583798990.2776816,18600,6.020498752593994
1583799013.8052068,18700,6.197325706481934
1583799037.0488033,18800,5.139148712158203
1583799048.634151,18850,6.771496772766113
1583799060.140697,18900,9.346402168273926
1583799071.8359628,18950,6.693442344665527
1583799083.5485153,19000,7.904706001281738
1583799107.236022,19100,7.097176551818848
1583799119.0546262,19150,4.825767993927002
1583799142.5058491,19250,5.095105171203613
1583799154.3228292,19300,4.634732246398926
1583799166.113675,19350,5.695109844207764
1583799177.9886296,19400,4.490106105804443
1583799189.7924569,19450,5.068808078765869
1583799213.0676239,19550,6.400266170501709
1583799224.7526014,19600,4.924190521240234
1583799236.4967618,19650,6.255502223968506
1583799248.2608082,19700,10.778791427612305
1583799283.583032,19850,6.39076042175293
1583799307.0120025,19950,5.020331859588623
1583799318.8431363,20000,4.90421724319458
1583799342.5693982,20100,7.423229694366455
1583799354.3544166,20150,5.344085693359375
1583799366.1187193,20200,7.803930759429932
1583799389.4960165,20300,6.294209003448486
1583799401.1125574,20350,4.928823471069336
1583799424.408369,20450,4.302328586578369
1583799447.8629224,20550,5.389095306396484
1583799506.3688483,20800,5.2185516357421875
1583799518.1032145,20850,5.915536403656006
1583799553.3765337,21000,8.395566940307617
1583799565.0839694,21050,4.126906871795654
1583799576.872224,21100,4.450660705566406
1583799588.5554621,21150,4.39582633972168
1583799600.31934,21200,5.863937854766846
1583799612.0469553,21250,7.35316276550293
1583799635.5362093,21350,7.758759498596191
1583799659.2191505,21450,8.67754077911377
1583799682.8870187,21550,5.393517017364502
1583799706.3862424,21650,6.595506191253662
1583799741.8816416,21800,5.8231520652771
1583799753.6512687,21850,5.739187717437744
1583799776.9386964,21950,5.497435569763184
1583799788.7225366,22000,4.931793689727783
1583799800.5020678,22050,5.2093987464904785
1583799812.3156488,22100,4.007657527923584
1583799824.1289544,22150,5.058078289031982
1583799847.544884,22250,4.8434157371521
1583799859.3352451,22300,5.865048885345459
1583799871.2888005,22350,5.348385334014893
1583799883.1287034,22400,5.563661575317383
1583799894.9812682,22450,6.3984904289245605
1583799906.6985726,22500,5.605232238769531
1583799918.534205,22550,5.051109313964844
1583799930.2900052,22600,4.008757591247559
1583799942.1737502,22650,5.514431476593018
1583799965.7843692,22750,4.469471454620361
1583799977.519942,22800,6.18991756439209
1583800001.0841346,22900,6.309625625610352
1583800012.673616,22950,2.9770071506500244
1583800024.3199816,23000,4.171175003051758
1583800036.0089564,23050,10.691690444946289
1583800047.6458864,23100,3.4094908237457275
1583800059.352244,23150,4.2540411949157715
1583800071.1089277,23200,5.62393045425415
1583800082.8549056,23250,5.600664138793945
1583800094.4942715,23300,3.525627613067627
1583800106.2210927,23350,5.209685802459717
1583800118.023314,23400,4.695218563079834
1583800129.7471392,23450,5.631197452545166
1583800141.375517,23500,4.250687599182129
1583800153.1020982,23550,6.164841651916504
1583800164.8254194,23600,5.931328773498535
1583800176.5173821,23650,7.13299036026001
1583800188.2200427,23700,7.545034408569336
1583800199.9448771,23750,6.957559585571289
1583800235.3462868,23900,5.921657562255859
1583800247.1309917,23950,4.173169136047363
1583800294.570143,24150,8.282671928405762
1583800330.1123536,24300,5.128432273864746
1583800341.9440358,24350,5.286893367767334
1583800353.6950068,24400,7.59675407409668
1583800365.5160234,24450,5.600104808807373
1583800377.4359462,24500,5.774057388305664
1583800401.0164113,24600,4.849339962005615
1583800412.7469864,24650,7.327330112457275
1583800424.526103,24700,4.529160499572754
1583800459.9834201,24850,4.974700927734375
1583800471.7421455,24900,7.939855575561523
1583800495.265369,25000,3.984661102294922
1583800542.8784003,25200,4.0352582931518555
1583800554.6412024,25250,4.169015884399414
1583800566.318106,25300,3.727231740951538
1583800578.1031399,25350,7.093129634857178
1583800589.8946187,25400,5.351141929626465
1583800601.8052785,25450,6.862941741943359
1583800613.636187,25500,5.580214977264404
1583800625.4304042,25550,8.02733325958252
1583800637.1103826,25600,7.514415740966797
1583800648.854611,25650,5.799864768981934
1583800672.5885894,25750,4.137135028839111
1583800684.500365,25800,5.64797306060791
1583800696.284489,25850,5.283838272094727
1583800708.011331,25900,3.784899950027466
1583800719.7632887,25950,5.609209060668945
1583800731.4428358,26000,3.9533894062042236
1583800743.3114233,26050,5.717746734619141
1583800778.7889163,26200,5.462583541870117
1583800790.7373164,26250,8.103008270263672
1583800802.588733,26300,6.412224292755127
1583800874.2187414,26600,9.0486421585083
1583800898.0515401,26700,3.9266538619995117
1583800910.0015829,26750,5.527710914611816
1583800921.7678635,26800,7.0427632331848145
1583800933.5991697,26850,5.196995258331299
1583800945.4668567,26900,4.41288948059082
1583800957.1793454,26950,4.608681678771973
1583800968.7541568,27000,6.137979984283447
1583800980.4340584,27050,4.534878730773926
1583800992.1269472,27100,7.773008346557617
1583801003.939063,27150,5.84242582321167
1583801015.6803358,27200,4.324416637420654
1583801027.5095,27250,5.423154830932617
1583801039.247319,27300,5.053177833557129
1583801050.811911,27350,4.188312530517578
1583801062.510195,27400,6.707597255706787
1583801074.282191,27450,5.646896839141846
1583801086.0307498,27500,5.481819152832031
1583801109.4499917,27600,5.0978498458862305
1583801121.1457813,27650,5.379463195800781
1583801132.7920558,27700,4.258096218109131
1583801156.1358597,27800,3.986992359161377
1583801179.5001838,27900,4.542844295501709
1583801203.0845554,28000,4.2172980308532715
1583801214.855708,28050,3.5727362632751465
1583801226.7620938,28100,6.140433311462402
1583801250.5479608,28200,6.299226760864258
1583801262.4400797,28250,4.936747074127197
1583801274.3724394,28300,6.782802104949951
1583801298.0287323,28400,5.378026962280273
1583801309.8855596,28450,5.643418788909912
1583801321.6545134,28500,4.098067760467529
1583801333.5162525,28550,7.571827411651611
1583801345.2851474,28600,3.786893129348755
1583801357.091789,28650,6.135687351226807
1583801368.9335337,28700,7.752492427825928
1583801380.5998223,28750,5.154476642608643
1583801404.1690464,28850,4.4150519371032715
1583801415.9507117,28900,4.328113079071045
1583801427.6710498,28950,4.243418216705322
1583801439.386426,29000,4.594301700592041
1583801450.9157665,29050,8.56071662902832
1583801462.628127,29100,3.8079235553741455
1583801474.4193966,29150,3.683166265487671
1583801486.3281517,29200,4.43496036529541
1583801498.2109184,29250,4.549598693847656
1583801510.0921907,29300,4.2884931564331055
1583801522.0067546,29350,6.794933319091797
1583801533.8047175,29400,6.068487644195557
1583801545.6759672,29450,4.095609188079834
1583801557.4635744,29500,6.091509819030762
1583801581.0661952,29600,5.095247745513916
1583801592.7882037,29650,4.319096088409424
1583801604.5422125,29700,4.867247104644775
1583801627.8652592,29800,5.534221649169922
1583801639.6189818,29850,5.234895706176758
1583801651.4097443,29900,3.760429859161377
1583801663.1835449,29950,5.464375019073486
1583801686.7153964,30050,5.496509075164795
1583801698.4245038,30100,6.9164252281188965
1583801710.1963086,30150,6.225306987762451
1583801721.9950686,30200,4.685328960418701
1583801733.7310634,30250,6.167408466339111
1583801745.4454274,30300,5.797139644622803
1583801757.1438804,30350,4.2763671875
1583801780.5617921,30450,5.003615379333496
1583801804.1076214,30550,3.914536952972412
1583801815.8727608,30600,5.138930320739746
1583801827.626407,30650,5.172889709472656
1583801862.9755564,30800,4.546056747436523
1583801910.1867115,31000,5.795291423797607
1583801921.9086945,31050,4.930217266082764
1583801933.518009,31100,7.771944522857666
1583801945.160632,31150,4.328643321990967
1583801956.9302032,31200,4.88761568069458
1583801968.6803944,31250,4.982676029205322
1583801980.4251633,31300,3.399515151977539
1583801992.2813737,31350,5.694275856018066
1583802027.3533456,31500,5.732141494750977
1583802039.0303717,31550,5.873880863189697
1583802050.8271422,31600,4.765012741088867
1583802062.5523396,31650,5.422628402709961
1583802085.9314504,31750,6.175762176513672
1583802097.7713943,31800,4.209543228149414
1583802109.5764806,31850,8.176076889038086
1583802133.151536,31950,8.095117568969727
1583802145.0379345,32000,6.983297824859619
1583802156.822111,32050,4.979718208312988
1583802168.502338,32100,5.531185150146484
1583802180.2844925,32150,4.91532039642334
1583802192.146574,32200,7.376771926879883
1583802203.8556988,32250,3.789782762527466
1583802215.6021242,32300,5.032695293426514
1583802227.3164065,32350,6.512453556060791
1583802239.015903,32400,5.791616916656494
1583802250.7582219,32450,4.573310375213623
1583802262.5931332,32500,4.364893913269043
1583802274.3840613,32550,4.70792818069458
1583802286.1866996,32600,4.515984535217285
1583802298.0777447,32650,9.387907028198242
1583802309.9561934,32700,6.928991317749023
1583802345.4460745,32850,4.02642822265625
1583802357.3021154,32900,8.397655487060547
1583802380.9499526,33000,4.12060022354126
1583802404.396855,33100,8.538827896118164
1583802416.2124376,33150,3.204808473587036
1583802428.1018622,33200,3.325300693511963
1583802439.8784106,33250,7.788906097412109
1583802451.7133336,33300,6.483182907104492
1583802463.5280228,33350,3.349337100982666
1583802475.342887,33400,5.4668145179748535
1583802487.177459,33450,4.623241424560547
1583802498.9206748,33500,4.6215996742248535
1583802522.4384665,33600,5.115643501281738
1583802534.2085123,33650,5.418183326721191
1583802546.02093,33700,4.608610153198242
1583802557.8456168,33750,3.437058925628662
1583802569.593314,33800,5.917679786682129
1583802593.2261567,33900,7.273883819580078
1583802605.0026157,33950,5.994083881378174
1583802616.7457643,34000,4.822764873504639
1583802628.6081939,34050,6.049228191375732
1583802640.4045968,34100,9.422863006591797
1583802652.1293952,34150,2.9691996574401855
1583802663.824121,34200,6.930313587188721
1583802675.6159008,34250,5.343952655792236
1583802687.4859436,34300,5.7304792404174805
1583802699.3554168,34350,9.229982376098633
1583802711.0401957,34400,4.271124362945557
1583802722.653419,34450,5.4565911293029785
1583802734.3797302,34500,7.213854789733887
1583802769.7362046,34650,4.4805731773376465
1583802793.2082922,34750,5.649720668792725
1583802816.7384543,34850,4.560357093811035
1583802851.5940418,35000,6.250814914703369
1583802863.276761,35050,4.200833797454834
1583802875.0000248,35100,5.0912885665893555
1583802886.5048573,35150,4.380670070648193
1583802897.970689,35200,5.435329914093018
1583802909.3915758,35250,5.437941551208496
1583802920.899733,35300,4.911242961883545
1583802932.4098744,35350,4.766597270965576
1583802944.0468693,35400,5.208716869354248
1583802955.6723647,35450,4.603536605834961
1583802967.1927438,35500,3.317159652709961
1583802978.80491,35550,5.07564115524292
1583802990.4086766,35600,3.2691893577575684
1583803025.6896923,35750,5.33413553237915
1583803037.3909354,35800,5.114150524139404
1583803049.127675,35850,5.359233856201172
1583803072.6623862,35950,5.118561744689941
1583803084.447274,36000,2.834503173828125
1583803107.9627023,36100,4.33844518661499
1583803119.6351435,36150,6.185482978820801
1583803131.3833065,36200,7.1124653816223145
1583803143.0801828,36250,3.318176746368408
1583803154.8116739,36300,6.155943870544434
1583803166.5325556,36350,3.3181183338165283
1583803201.6323142,36500,5.410662651062012
1583803213.410294,36550,3.406653642654419
1583803225.1659365,36600,4.67012357711792
1583803272.4048977,36800,4.817094326019287
1583803284.060151,36850,6.040347099304199
1583803307.3605762,36950,3.442155599594116
1583803318.9887629,37000,3.257267951965332
1583803330.6678226,37050,4.1399335861206055
1583803342.411392,37100,4.192284107208252
1583803354.267585,37150,6.990259170532227
1583803366.0753446,37200,6.838155746459961
1583803377.9058566,37250,3.78875470161438
1583803389.7994108,37300,4.412753582000732
1583803401.5277467,37350,5.642242908477783
1583803413.3123772,37400,5.03118896484375
1583803436.875311,37500,5.047961711883545
1583803448.573422,37550,7.831413745880127
1583803460.2631602,37600,5.71210241317749
1583803471.9779687,37650,6.75849723815918
1583803483.76997,37700,4.246644020080566
1583803495.4443493,37750,8.097646713256836
1583803507.1222394,37800,5.010052680969238
1583803518.7761762,37850,4.823047161102295
1583803554.0426707,38000,5.228622913360596
1583803565.7136364,38050,5.488198757171631
1583803589.1591353,38150,6.180301189422607
1583803600.7482502,38200,7.504326343536377
1583803612.4442718,38250,8.29270076751709
1583803624.0942512,38300,4.8517165184021
1583803635.8661737,38350,4.715581893920898
1583803647.6034849,38400,2.863955497741699
1583803671.3331506,38500,5.239952087402344
1583803683.211253,38550,3.8022639751434326
1583803694.96857,38600,8.56102180480957
1583803706.746162,38650,5.169712066650391
1583803718.618002,38700,6.028011798858643
1583803730.4548292,38750,7.146623134613037
1583803742.2171268,38800,3.9139890670776367
1583803753.9561067,38850,4.533059120178223
1583803789.338887,39000,4.429783821105957
1583803801.074457,39050,3.7306408882141113
1583803824.606858,39150,4.96653938293457
1583803836.2738292,39200,4.3502373695373535
1583803847.980428,39250,4.1103596687316895
1583803859.71162,39300,6.628017425537109
1583803883.2363038,39400,4.892948150634766
1583803906.6821914,39500,5.410996437072754
1583803918.333538,39550,5.327644348144531
1583803930.1029198,39600,4.462230205535889
1583803941.8396003,39650,4.938384056091309
1583803953.5727084,39700,4.108900547027588
1583803965.2917843,39750,3.984110116958618
1583803977.0094843,39800,4.315436363220215
1583803988.8273075,39850,4.920929908752441
1583804012.2133956,39950,5.913513660430908
1583804023.8594456,40000,5.757252216339111
1583804035.634074,40050,4.992717742919922
1583804059.1024208,40150,5.59084415435791
1583804082.5972106,40250,3.3535308837890625
1583804094.3916795,40300,2.9977221488952637
1583804106.1710563,40350,4.270817279815674
1583804117.93542,40400,3.0611839294433594
1583804129.6587353,40450,5.026317596435547
1583804141.4066718,40500,4.357667922973633
1583804164.9933774,40600,4.079680919647217
1583804176.7586641,40650,8.052896499633789
1583804188.557635,40700,4.176261901855469
1583804200.5222313,40750,3.7830584049224854
1583804212.4145784,40800,6.705295085906982
1583804224.2851865,40850,4.700563430786133
1583804247.6067224,40950,4.475398540496826
1583804271.2868404,41050,4.225718021392822
1583804283.0516267,41100,6.394774436950684
1583804306.6553802,41200,2.672353744506836
1583804318.3802679,41250,5.795315265655518
1583804330.125258,41300,4.730838775634766
1583804365.300808,41450,4.646944046020508
1583804376.9543397,41500,3.002992630004883
1583804388.667644,41550,5.111078262329102
1583804400.334001,41600,7.2637810707092285
1583804412.1485865,41650,6.2022786140441895
1583804435.5432496,41750,5.299026966094971
1583804447.2588732,41800,3.787827730178833
1583804458.9247618,41850,6.217696189880371
1583804470.566731,41900,8.85812759399414
1583804482.389229,41950,4.256892204284668
1583804494.150082,42000,4.4098358154296875
1583804505.9478085,42050,5.2384724617004395
1583804529.491374,42150,4.88594913482666
1583804541.3113768,42200,4.269296169281006
1583804564.8152015,42300,6.034654140472412
1583804576.5714684,42350,4.8376593589782715
1583804588.2035272,42400,8.891939163208008
1583804599.8447604,42450,4.374197959899902
1583804623.3042862,42550,5.017606258392334
1583804634.9405415,42600,7.517448425292969
1583804646.6847572,42650,3.2688112258911133
1583804658.372241,42700,3.5631086826324463
1583804682.008035,42800,3.5444746017456055
1583804705.253364,42900,6.096491813659668
1583804728.6728222,43000,5.68585205078125
1583804740.3693306,43050,5.439697742462158
1583804752.0362258,43100,4.432807445526123
1583804763.7752585,43150,6.873843669891357
1583804775.4650815,43200,4.796232223510742
1583804822.502529,43400,4.369182109832764
1583804834.143,43450,5.300210952758789
1583804845.8503275,43500,4.562924861907959
1583804857.5560968,43550,4.203719615936279
1583804869.2303765,43600,3.5253992080688477
1583804892.6967046,43700,6.022643089294434
1583804904.4340034,43750,4.687946319580078
1583804916.1754272,43800,4.951653003692627
1583804927.8851023,43850,7.099947929382324
1583804939.584263,43900,3.451334238052368
1583804951.2387614,43950,4.76723575592041
1583804962.93109,44000,5.467342376708984
1583804974.7425804,44050,6.629630088806152
1583804986.5500946,44100,4.2230224609375
1583804998.403331,44150,4.485401630401611
1583805022.0235434,44250,5.2033491134643555
1583805033.8257337,44300,5.776478290557861
1583805045.5229905,44350,4.988829612731934
1583805057.2638576,44400,5.872446537017822
1583805069.0288727,44450,5.246270179748535
1583805080.745187,44500,4.720385551452637
1583805092.4566019,44550,5.750722408294678
1583805115.839702,44650,5.359195232391357
1583805127.642685,44700,5.553341865539551
1583805139.4177406,44750,4.654034614562988
1583805151.2348974,44800,3.262112855911255
1583805163.1539721,44850,3.5647165775299072
1583805175.0996785,44900,4.280919551849365
1583805186.9291523,44950,5.074260234832764
1583805198.9092062,45000,5.302250385284424
1583805210.8044221,45050,6.078144073486328
1583805258.5771937,45250,6.823400497436523
1583805270.366198,45300,4.653708457946777
1583805294.079392,45400,4.686638832092285
1583805305.9663491,45450,5.705195903778076
1583805317.7953346,45500,5.044985771179199
1583805329.6075497,45550,5.361764430999756
1583805341.435712,45600,6.521958827972412
1583805353.042282,45650,4.306434154510498
1583805364.8159633,45700,2.8566765785217285
1583805388.442869,45800,5.039674282073975
1583805400.2865357,45850,4.611932754516602
1583805412.0975776,45900,5.3739333152771
1583805423.9332054,45950,6.820539951324463
1583805447.625028,46050,5.417910575866699
1583805459.4954586,46100,5.192523956298828
1583805471.2473195,46150,5.133235931396484
1583805483.0721097,46200,3.9787070751190186
1583805494.790401,46250,5.63756799697876
1583805506.596704,46300,5.3706135749816895
1583805530.1407802,46400,3.9375789165496826
1583805541.8876934,46450,6.3259782791137695
1583805565.3407493,46550,4.4403276443481445
1583805577.0202708,46600,3.342747926712036
1583805588.6367006,46650,5.034918308258057
1583805600.351517,46700,4.9103546142578125
1583805612.0613394,46750,5.147245407104492
1583805623.76246,46800,5.058559417724609
1583805647.1047997,46900,3.2592225074768066
1583805670.395329,47000,2.867988109588623
1583805705.5174887,47150,3.131314277648926
1583805717.2315187,47200,9.634523391723633
1583805729.0432072,47250,5.2411322593688965
1583805740.7532456,47300,4.757197380065918
1583805764.2207441,47400,3.1824512481689453
1583805776.0484025,47450,4.755544662475586
1583805787.8139942,47500,4.3950653076171875
1583805811.3252616,47600,4.801915645599365
1583805823.0688577,47650,4.51731538772583
1583805834.8831728,47700,2.620246648788452
1583805846.6683662,47750,3.0238583087921143
1583805870.729153,47850,5.832952976226807
1583805882.4844208,47900,5.29045295715332
1583805894.298577,47950,2.9683399200439453
1583805905.8923268,48000,3.392728567123413
1583805917.431966,48050,3.6666147708892822
1583805929.3811104,48100,5.022349834442139
1583805941.1552742,48150,6.413517951965332
1583805952.9418755,48200,7.580682277679443
1583805964.662468,48250,4.174844264984131
1583805988.168432,48350,3.990814685821533
1583805999.6591382,48400,5.812999248504639
1583806023.0338287,48500,5.541898727416992
1583806046.333147,48600,3.9709668159484863
1583806057.978741,48650,6.288899898529053
1583806081.227275,48750,5.205552577972412
1583806104.5867498,48850,2.961341619491577
1583806116.290051,48900,4.961756229400635
1583806127.9891005,48950,4.719501495361328
1583806139.7901125,49000,6.39832067489624
1583806175.1673403,49150,3.7670505046844482
1583806187.006668,49200,6.244471073150635
1583806198.7764103,49250,7.343375205993652
1583806210.5287647,49300,2.3844525814056396
1583806234.0881429,49400,5.913496494293213
1583806245.9551222,49450,11.575542449951172
1583806257.7765276,49500,5.128203868865967
1583806269.5903938,49550,4.011668682098389
1583806281.3832514,49600,6.559678554534912
1583806316.5217605,49750,4.556049346923828
1583806339.9542296,49850,3.2044565677642822
1583806351.7881844,49900,3.7157626152038574
1583806375.3365824,50000,4.504583358764648
1583806387.1575725,50050,4.327127933502197
1583806410.6742876,50150,6.135061264038086
1583806422.542862,50200,3.6515631675720215
1583806434.4307754,50250,5.158848762512207
1583806446.1901264,50300,6.085112571716309
1583806469.7353563,50400,3.03303599357605
1583806481.4497106,50450,4.945591926574707
1583806493.1846905,50500,4.1305832862854
1583806516.5674245,50600,4.26274299621582
1583806528.2647703,50650,9.066228866577148
1583806539.9783015,50700,4.309818744659424
1583806551.68684,50750,5.023293495178223
1583806575.163095,50850,6.1884613037109375
1583806586.8611107,50900,4.1875081062316895
1583806610.1706252,51000,5.172782897949219
1583806633.5101976,51100,5.7530436515808105
1583806645.2458403,51150,6.181796073913574
1583806668.6474748,51250,3.614009141921997
1583806680.3778334,51300,3.87318754196167
1583806692.0582457,51350,5.523662090301514
1583806703.813983,51400,3.154113531112671
1583806727.267812,51500,6.714724540710449
1583806750.8528323,51600,4.740123271942139
1583806762.6594384,51650,3.842501640319824
1583806774.4524908,51700,4.723145961761475
1583806786.2853239,51750,4.389124870300293
1583806798.1420436,51800,5.879016399383545
1583806810.0192268,51850,4.205021381378174
1583806821.9089434,51900,4.278292179107666
1583806833.7061284,51950,3.3203353881835938
1583806845.3779342,52000,3.417525291442871
1583806857.125223,52050,3.4728941917419434
1583806880.5820317,52150,4.973957538604736
1583806892.355322,52200,3.816439390182495
1583806904.104415,52250,5.162222862243652
1583806915.7853425,52300,5.0573225021362305
1583806950.9872994,52450,5.169137001037598
1583806962.7383714,52500,5.835661888122559
1583806974.5292594,52550,4.2478251457214355
1583806986.368697,52600,4.592820644378662
1583806998.147822,52650,4.024343490600586
1583807021.681173,52750,6.098306179046631
1583807033.385591,52800,8.122075080871582
1583807045.2052264,52850,9.503154754638672
1583807056.9685085,52900,5.654691696166992
1583807068.7944746,52950,3.8447532653808594
1583807127.474748,53200,5.634126663208008
1583807139.2072086,53250,4.972352981567383
1583807150.8989913,53300,3.4446234703063965
1583807162.629139,53350,7.77022123336792
1583807174.4077685,53400,3.9048314094543457
1583807186.2776642,53450,7.6902337074279785
1583807209.7783046,53550,4.599419593811035
1583807221.4594252,53600,4.043613433837891
1583807233.3008926,53650,3.333415985107422
1583807245.1390033,53700,5.767843246459961
1583807256.924632,53750,3.706498146057129
1583807268.8359914,53800,5.201852321624756
1583807280.6569455,53850,4.928189277648926
1583807292.4767282,53900,5.37827205657959
1583807304.1388965,53950,3.5340027809143066
1583807315.9661524,54000,4.785780906677246
1583807327.7717056,54050,5.216300964355469
1583807339.543914,54100,5.8416972160339355
1583807351.3725343,54150,4.182492256164551
1583807363.2089984,54200,10.164590835571289
1583807375.0683813,54250,4.143390655517578
1583807386.8961232,54300,2.6277172565460205
1583807398.8828385,54350,3.4831395149230957
1583807422.8094242,54450,7.518413543701172
1583807446.4731455,54550,3.911654472351074
1583807458.2745001,54600,7.020168304443359
1583807470.079733,54650,3.2256126403808594
1583807481.9647744,54700,2.3669381141662598
1583807493.813215,54750,3.887007474899292
1583807517.1186798,54850,3.5894477367401123
1583807540.4830709,54950,4.438474178314209
1583807552.3317566,55000,4.96832275390625
1583807564.1126804,55050,3.6481823921203613
1583807575.980974,55100,5.162708759307861
1583807599.4598246,55200,6.179134845733643
1583807611.353787,55250,4.694682598114014
1583807623.2688518,55300,4.496133804321289
1583807635.0778358,55350,5.138956546783447
1583807646.9831405,55400,3.7335946559906006
1583807682.4742467,55550,3.7910919189453125
1583807694.269351,55600,5.505521297454834
1583807729.5293977,55750,5.56483793258667
1583807741.3080025,55800,5.08516263961792
1583807753.048352,55850,3.4325122833251953
1583807788.1075263,56000,4.879319667816162
1583807799.8980043,56050,3.804598808288574
1583807823.5713453,56150,4.342039108276367
1583807835.3272464,56200,5.664300918579102
1583807847.0530846,56250,5.402817249298096
1583807858.9859889,56300,2.9359824657440186
1583807870.808556,56350,3.8076632022857666
1583807882.558118,56400,5.956326484680176
1583807894.2714322,56450,3.486999750137329
1583807906.1142673,56500,5.2371697425842285
1583807917.843815,56550,4.981505870819092
1583807929.7007859,56600,5.546828746795654
1583807953.1476352,56700,3.2860333919525146
1583807964.8178983,56750,6.722285747528076
1583807976.4865634,56800,6.449730396270752
1583807999.8536963,56900,4.1250128746032715
1583808011.569115,56950,4.815681457519531
1583808023.3569946,57000,3.6232690811157227
1583808035.1654198,57050,6.166196823120117
1583808046.9697616,57100,4.741641521453857
1583808058.8260746,57150,4.8079962730407715
1583808070.6237745,57200,5.148849964141846
1583808082.3375561,57250,3.565751791000366
1583808106.0005803,57350,7.091943740844727
1583808117.825104,57400,4.860097885131836
1583808141.4167712,57500,6.213693141937256
1583808153.2887757,57550,4.775234222412109
1583808165.0378945,57600,5.3646087646484375
1583808176.8056872,57650,3.7351508140563965
1583808188.562284,57700,6.730687141418457
1583808200.331892,57750,4.131326198577881
1583808212.0138438,57800,3.692026138305664
1583808223.6691039,57850,5.159578323364258
1583808235.3431933,57900,3.2138309478759766
1583808247.188632,57950,4.96964168548584
1583808259.0616565,58000,2.771754026412964
1583808270.9295273,58050,4.6313886642456055
1583808282.7995796,58100,4.0501532554626465
1583808294.66132,58150,4.422079563140869
1583808318.1901119,58250,3.364346742630005
1583808329.9739785,58300,4.829704761505127
1583808341.7722723,58350,4.315077304840088
1583808353.4731119,58400,3.589848279953003
1583808377.16846,58500,5.954802989959717
1583808388.9962554,58550,5.622029781341553
1583808436.1215212,58750,6.468629837036133
1583808459.7253811,58850,4.713044166564941
1583808471.4517305,58900,4.749539852142334
1583808494.9275978,59000,5.516830921173096
1583808506.784013,59050,5.007241725921631
1583808518.6636622,59100,5.649574279785156
1583808530.4999564,59150,4.171208381652832
1583808542.31872,59200,11.946914672851562
1583808565.921945,59300,4.933874607086182
1583808577.722528,59350,3.8264968395233154
1583808589.6364167,59400,5.3286919593811035
1583808601.4297664,59450,6.691818714141846
1583808613.1502855,59500,5.955897331237793
1583808624.9543808,59550,6.1706037521362305
1583808636.7429845,59600,5.525671005249023
1583808648.527016,59650,3.7401089668273926
1583808660.238123,59700,3.64513897895813
1583808672.0763566,59750,3.806976318359375
1583808683.7379844,59800,8.146812438964844
1583808695.4777215,59850,5.2889862060546875
1583808707.233493,59900,3.0963387489318848
1583808718.9275577,59950,5.432267189025879
1583808730.6048985,60000,4.6382856369018555
1583808742.4103692,60050,5.039403438568115
1583808754.211959,60100,4.68020486831665
1583808777.920073,60200,4.247676849365234
1583808789.8403447,60250,7.113455772399902
1583808813.4491968,60350,4.24019193649292
1583808825.3112562,60400,4.443752288818359
1583808837.0910704,60450,4.322995662689209
1583808860.8071668,60550,4.6084370613098145
1583808872.5372934,60600,3.715810775756836
1583808884.347044,60650,3.363651990890503
1583808896.2252905,60700,3.253305435180664
1583808908.005872,60750,6.050490856170654
1583808919.8129697,60800,5.112453460693359
1583808943.7432194,60900,5.529606819152832
1583808967.2827985,61000,5.979106426239014
1583808990.9258354,61100,5.155402660369873
1583809026.5619442,61250,7.328725337982178
1583809038.3240652,61300,4.418948173522949
1583809050.1205616,61350,5.519102096557617
1583809061.936228,61400,3.447481870651245
1583809073.7206955,61450,7.669948101043701
1583809085.3483725,61500,4.589724540710449
1583809108.8404171,61600,6.573319911956787
1583809120.4430943,61650,6.317938804626465
1583809132.1338708,61700,12.108681678771973
1583809143.88657,61750,7.763971328735352
1583809155.6740837,61800,6.025844573974609
1583809167.4079585,61850,5.78547477722168
1583809179.166286,61900,4.827224254608154
1583809190.922386,61950,2.4284751415252686
1583809202.6803617,62000,4.657554626464844
1583809214.3819258,62050,5.830329418182373
1583809237.9503167,62150,5.005711078643799
1583809249.6784391,62200,4.428018569946289
1583809261.434847,62250,3.564634084701538
1583809284.795212,62350,6.8043317794799805
1583809296.5357566,62400,4.629780292510986
1583809308.3178988,62450,5.414904594421387
1583809320.235636,62500,6.099058151245117
1583809331.9777613,62550,4.911202907562256
1583809343.747791,62600,3.072028398513794
1583809355.3856988,62650,5.455328941345215
1583809367.2743227,62700,4.946566104888916
1583809379.1151385,62750,5.434261798858643
1583809390.9743328,62800,5.574262619018555
1583809402.8001907,62850,2.94560170173645
1583809414.701682,62900,3.229994535446167
1583809426.5354543,62950,6.046487808227539
1583809438.4001424,63000,3.9069509506225586
1583809462.0718424,63100,4.067989349365234
1583809473.8652446,63150,14.73166561126709
1583809485.4060678,63200,4.2055253982543945
1583809497.0673618,63250,4.824710369110107
1583809508.6876416,63300,5.318559646606445
1583809520.3991513,63350,5.133423328399658
1583809532.17287,63400,7.189180850982666
1583809543.8193471,63450,6.232657432556152
1583809555.4624383,63500,4.67615270614624
1583809578.8585465,63600,6.5951128005981445
1583809590.5410395,63650,4.982789516448975
1583809613.765074,63750,3.9658596515655518
1583809648.9184532,63900,5.215305805206299
1583809660.6421328,63950,5.822373867034912
1583809672.3584242,64000,8.060534477233887
1583809695.9329934,64100,5.522524833679199
1583809707.5966134,64150,6.1208271980285645
1583809719.4055288,64200,5.56358528137207
1583809743.1248305,64300,4.059165954589844
1583809766.914149,64400,4.900405406951904
1583809778.782471,64450,5.825453758239746
1583809790.7546394,64500,6.7386040687561035
1583809802.5945876,64550,5.624844551086426
1583809814.2318738,64600,4.009819030761719
1583809825.8856428,64650,3.8473563194274902
1583809837.4643614,64700,6.0606369972229
1583809848.9404814,64750,5.358032703399658
1583809872.1605258,64850,4.780211925506592
1583809883.7636845,64900,4.291922569274902
1583809895.5608442,64950,5.072643756866455
1583809907.29351,65000,5.6844916343688965
1583809919.0179915,65050,7.251765727996826
1583809942.6199863,65150,4.420931339263916
1583809954.4500964,65200,5.948500633239746
1583809966.2611284,65250,5.073677062988281
1583809989.9572673,65350,7.095786094665527
1583810001.7720997,65400,4.9208221435546875
1583810013.5558825,65450,3.454617977142334
1583810025.1849422,65500,3.8189542293548584
1583810036.9400938,65550,4.022491455078125
1583810048.513889,65600,4.8024444580078125
1583810059.955822,65650,6.6129655838012695
